[
    {
      "id": "aube",
      "name": "Aubergine",
      "type": "vegetable",
      "family": "Solanaceae",
      "synopsis": "The most frequent on the shelves is the purple eggplant, with its white and soft flesh.",
      "preservation": "Up to 5 days in the crisper",
      "nutritional": "33 kcal per 100g",
      "vitamin": "Rich in fiber and vitamin B5",
      "history": "The cultivation of eggplant is very old. It dates back to 800 BC, in the Indo-Burmese region. The vegetable still thrives in India, which has an impressive quantity of varieties of all colors. It is also found in China, four centuries before our era. The eggplant is then implanted in the Mediterranean basin thanks to the Arab navigators who bring it back from their voyages from the end of the world. The vegetable quickly acclimatized to the mild heat of the region, and quickly flourished. Little by little, the eggplant made its first steps on the European continent, cultivated by the Spaniards in the Middle Ages. It was not until the 15th century that it developed in Italy and in the south of France.",
      "imagePath": "../../../assets/vegetables/icons/aubergine.png",
      "cultureSheets": {
        "monthOfPlanting": [3, 4],
        "monthOfHarvest": [7, 10],
        "plantingInterval": null,
        "plantation": "Sow in March/April, transplant at the end of May, when the plants have 5 to 6 leaves.",
        "harvest": "The fruits do not need to ripen: they can be cut as soon as they have reached their average size, using secateurs to avoid tearing the stem.",
        "soil": "Rich in humus and well drained..",
        "tasks": "Remove yellowing leaves",
        "favourableAssociation": ["Cucumber"],
        "unfavourableAssociation": null,
        "favourablePrecedents": null,
        "unfavourablePrecedents": ["Tomato"]
      }
    },
    {
      "id": "carr",
      "name": "Carrot",
      "type": "vegetable",
      "family": "Apiaceae",
      "synopsis": "It contains many minerals and vitamins. According to the saying, it would even make you likeable...",
      "preservation": "8 days maximum in the refrigerator crisper",
      "nutritional": "40 kcal for 100g",
      "vitamin": "Rich in fiber and vitamin B9",
      "history": "The inhabitants of the Mediterranean basin began to consume the carrot long before our era. But Greeks and Romans did not seem to appreciate it. At that time, carrots had a whitish color, a rather tough skin and a very fibrous heart. During the Renaissance, the species was improved and the carrot became tastier. But it is only from the middle of the 19th century that the carrot will acquire its beautiful orange-red color, and finally become the tender vegetable that we know.",
      "imagePath": "../../../assets/vegetables/icons/carrot.png",
      "cultureSheets": {
        "monthOfPlanting": [10, 11],
        "monthOfHarvest": [5, 11],
        "plantingInterval": null,
        "plantation": "Sow in October November. Transplant from March to July.",
        "harvest": "From May to November depending on the variety.",
        "soil": "Fresh and light, enriched the previous year, or the same year with vegetable compost.",
        "tasks": "Once a week, water with water and wood ashes. Ashes are rich in potassium, a mineral that carrots particularly appreciate.",
        "favourableAssociation": ["Leek", "Lettuce"],
        "unfavourableAssociation": null,
        "favourablePrecedents": ["Lettuce", "Spinach", "Potato"],
        "unfavourablePrecedents": ["Bean"]
      }
    },
    {
      "id": "cucu",
      "name": "Cucumber",
      "type": "vegetable",
      "family": "Cucurbitaceae",
      "synopsis": "Every year, it is a great success. In France, we consume about 1.8 kilos per year and per person. Raw or cooked, learn to vary the pleasures!",
      "preservation": "7 days max. in the refrigerated bin",
      "nutritional": "14 kcal per 100g",
      "vitamin": "Riche en potassium",
      "history": "Born in all likelihood in northern India (where it is the subject of many legendary stories), the cucumber spread very early to China and the Middle East. It was then cultivated on the banks of the Nile by the Egyptians, who consumed it a lot and gave it as offerings to their gods. The Hebrews also brought it to the Promised Land, where it became one of their favorite foods. During the Antiquity, Greeks and Romans also appreciated cucumbers a lot, in spite of its strong bitterness. Pliny even reports that the emperor Tiberius used to eat it daily, and that gardeners used to grow it under a bell to accelerate its growth. In France, we find official mention of its presence since the 9th century, when Charlemagne ordered the cultivation of it in his domains. In the 17th century, Louis XIV is also very fond of it. In order to serve it to him as a \"primeur\", La Quintinie, the chief gardener of Versailles, will develop the production under greenhouse. Today, the cucumber is mainly cultivated in this way.",
      "imagePath": "../../../assets/vegetables/icons/cucumber.png",
      "cultureSheets": {
        "monthOfPlanting": 6,
        "monthOfHarvest": 8,
        "plantingInterval": null,
        "plantation": "Do not plant it in the ground until late April or early May, like tomatoes. To save space, but also so that its foliage is more airy (and thus less attacked by powdery mildew), stake your plants because, like many cucurbits, the cucumber has tendrils that allow it to pull itself up on stakes or other plants present around it.",
        "harvest": "From mid-August (3 months after planting)",
        "soil": "Light, rich in loose humus",
        "tasks": "Water the cucumber plants regularly but do not water the foliage. Mulch around the plants to prevent weeds and limit water evaporation.",
        "favourableAssociation": ["Aubergine", "Tomato"],
        "unfavourableAssociation": null,
        "favourablePrecedents": ["Corn"],
        "unfavourablePrecedents": null
      }
    },
    {
      "id": "fen",
      "name": "Fennel",
      "type": "plant",
      "fromTree": false,
      "family": "Apiaceae",
      "synopsis": "A symbolic and mythological reference since Antiquity, it is above all a particularly interesting food on the nutritional level. It can be found with pleasure in savory dishes, but also in sweet desserts.",
      "preservation": "A week in the crisper",
      "nutritional": "21 kcal for 100g",
      "vitamin": "Rich in vitamin k1 and B9",
      "history": "Sweet fennel began to be cultivated in Tuscany in the late Middle Ages. Popularized by Catherine de Medici, it became one of the favorite vegetables of Italians.",
      "imagePath": "../../../assets/vegetables/icons/fennel.png",
      "cultureSheets": {
        "monthOfPlanting": [7, 8],
        "monthOfHarvest": [10, 11],
        "plantingInterval": null,
        "plantation": "Replant in July-August",
        "harvest": "Late October-early November",
        "soil": "In light, fresh soil with added sand. Warm exposure.",
        "tasks": "Water thoroughly and mulch if necessary.",
        "favourableAssociation": ["Celery"],
        "unfavourableAssociation": null,
        "favourablePrecedents": null,
        "unfavourablePrecedents": null
      }
    },
    {
      "id": "lett",
      "name": "Lettuce",
      "type": "vegetable",
      "family": "Asteraceae",
      "synopsis": "Crunchy or melting, fleshy or light, it is mainly eaten in salads, but lends itself to many cooked preparations.",
      "preservation": "1 to 2 days in the crisper",
      "nutritional": "14 kcal for 100g",
      "vitamin": "Rich in fiber and vitamin K1",
      "history": "The Greeks and Romans cultivated lettuce of the Celtic or Roman type, which was not headed. They consumed it in particular to prepare their stomach for their copious meals.",
      "imagePath": "../../../assets/vegetables/icons/lettuce.png",
      "cultureSheets": {
        "monthOfPlanting": [5, 7],
        "monthOfHarvest": [7, 9],
        "plantingInterval": null,
        "plantation": "You can realize your seedlings in nursery or directly in place. You will need more seeds, but the seedlings will gain in precocity and will be more resistant to drought.",
        "harvest": "The harvest starts about 2 months after sowing",
        "soil": "Rather light, warming up quickly",
        "tasks": "When transplanting, do not bury the collar too much. Mulch",
        "favourableAssociation": ["Cabbage", "Carrot", "Cucumber", "Bean", "Tomato"],
        "unfavourableAssociation": null,
        "favourablePrecedents": null,
        "unfavourablePrecedents": null
      }
    },
    {
      "id": "onio",
      "name": "Onion",
      "type": "vegetable",
      "family": "Allioideae",
      "synopsis": "Involved in an impressive number of preparations, it lends itself with as much success to the most rustic dishes (flamiche, gratinée...) as to the most sophisticated dishes (pan-fried foie gras, duck breast...). This bulb, an organ of nutritive reserves for the plant and its flower, also presents nutritional qualities which invite you to conjugate well-being and pleasure of the table.",
      "preservation": "3 or 4 days in the crisper",
      "nutritional": "21 kcal per 100g",
      "vitamin": "Rich in fiber and vitamin C",
      "history": "If we do not know the wild ancestor of the onion, we know on the other hand that it has been cultivated for more than 5000 years. The first traces of production come from Mesopotamia, its cultivation then reaching ancient Egypt (texts dating back more than 4,000 years mention it), Greece, the Roman Empire and then the rest of Europe and the World. It is even a symbol of intelligence in ancient China.",
      "imagePath": "../../../assets/vegetables/icons/onion.png",
      "cultureSheets": {
        "monthOfPlanting": 3,
        "monthOfHarvest": [7, 8],
        "plantingInterval": 3,
        "plantation": "Plant the small bulbs in March. Cut the roots at about 1 cm from the bulb and level the leaves. Bury each bulb at a maximum depth of 2 or 3 cm.",
        "harvest": "July and August",
        "soil": "Soft and light, not too humid.",
        "tasks": "Onions fear competition, so weed regularly.",
        "favourableAssociation": ["Carrot", "Lettuce", "Strawberry"],
        "unfavourableAssociation": ["Bean", "Leek", "Cabbage"],
        "favourablePrecedents": ["Radish", "Lettuce"],
        "unfavourablePrecedents": null
      }
    },
    {
      "id": "pear",
      "name": "Pear",
      "type": "fruit",
      "family": "Rosaceae",
      "synopsis": "Enjoy it as a snack or reveal its sweetness in many desserts or savory recipes. Adopt it, it only wants to do you good!",
      "preservation": "3 to 7 days at room temperature",
      "nutritional": "53 kcal pour 100g",
      "vitamin": "Rich in vitamin B9",
      "history": "Little by little, Europe got to know it. In France, it appeared in the 16th century and King Louis XIV popularized it thanks to his gardener La Quintinie. Several species of pear trees were cultivated in the famous 'king's garden'. Over the centuries, multiple varieties were selected and retained. In France, about ten are currently produced. One of the most popular is the Conference, born in England. It owes its name to the prize it won at the British National Pear Conference in 1885.",
      "imagePath": "../../../assets/vegetables/icons/pear.png",
      "cultureSheets": {
        "monthOfPlanting": [3, 4],
        "monthOfHarvest": [7, 11],
        "plantingInterval": null,
        "plantation": "If the pear tree likes deep and fresh soils, it is however necessary to avoid wet areas, favourable to the development of cryptogamic diseases. In order to obtain beautiful fruits, keep only one pear per bunch.",
        "harvest": "Summer pears are picked a little before they are fully ripe and eaten about a week later. Fall pears are harvested when fully ripe.",
        "soil": "Fresh and deep",
        "tasks": "Pear trees prefer humidity. Be sure to water the first year and in dry weather",
        "favourableAssociation": null,
        "unfavourableAssociation": null,
        "favourablePrecedents": null,
        "unfavourablePrecedents": null
      }
    },
    {
      "id": "pepp",
      "name": "Pepper",
      "type": "vegetable",
      "family": "Solanaceae",
      "synopsis": "A fruit-vegetable like the tomato, it can be easily integrated into all sunny recipes. Low in calories, it is also appreciated for its vitamins.",
      "preservation": "8 days in the crisper",
      "nutritional": "35 kcal for 100g",
      "vitamin": "Rich in vitamin C",
      "history": "Certainly native to South America, the bell pepper was probably first cultivated in Mexico. Seeds dating back 5,000 years have been found there during archaeological excavations.",
      "imagePath": "../../../assets/vegetables/icons/pepper.png",
      "cultureSheets": {
        "monthOfPlanting": [5, 6],
        "monthOfHarvest": [8, 11],
        "plantingInterval": null,
        "plantation": "Their cultivation is similar to that of eggplant: they require a lot of heat and sowing should be done under cover from February for planting in May.",
        "harvest": "end of July - November. Harvest the fruits by cutting them with secateurs behind the stalk",
        "soil": "Light, cool and loose",
        "tasks": "Hoe, weed and water frequently to keep the soil fresh.",
        "favourableAssociation": ["Carrot", "Tomato", "Cabbage"],
        "unfavourableAssociation": null,
        "favourablePrecedents": null,
        "unfavourablePrecedents": null
      }
    },
    {
      "id": "pota",
      "name": "Potato",
      "type": "vegetable",
      "family": "Solanaceae",
      "synopsis": "Whether you like them fried, au gratin, mashed or steamed and topped with melting butter, tasty potatoes are one of the pillars of the vegetable garden.",
      "preservation": "null",
      "nutritional": "null",
      "vitamin": "Rich in vitamin B6",
      "history": "Born 8,000 years ago on the plateaus of the Andes, the potato was quickly cultivated by the Incas in the 13th century. It was not until 3 centuries later that it reached European shores, thanks to the Spanish conquistadors. The vegetable then migrated to Italy, then to Germany and the south of France. It began to be cultivated under the impulse of Olivier de Serres and Charles de l'Escluze.",
      "imagePath": "../../../assets/vegetables/icons/potato.png",
      "cultureSheets": {
        "monthOfPlanting": [1, 5],
        "monthOfHarvest": [4, 7],
        "plantingInterval": null,
        "plantation": "Depending on their earliness, potatoes can be planted from February to May. Traditionally, to avoid the development of weeds and to keep the tubers in the dark, the potatoes are ridged, bringing soil to the foot of each plant. The watering should be copious at the time of the formation and the enlargement of the tubers.",
        "harvest": "Potatoes are easy to store in a cool, dark place. However, it is necessary to degerminate the tubers two or three times if the storage temperature is not cool enough (ideally between 4 and 8 ℃), especially for varieties harvested in early summer.",
        "soil": null,
        "tasks": "Water regularly",
        "favourableAssociation": ["Pea"],
        "unfavourableAssociation": null,
        "favourablePrecedents": ["cabbage"],
        "unfavourablePrecedents": ["Aubergine"]
      }
    },
    {
      "id": "radi",
      "name": "Radish",
      "type": "vegetable",
      "family": "Brassicaceae",
      "synopsis": "Long, round, small or large, the different varieties offer a subtle palette of flavors. Crunched naturally with a little salt, it is a pure pleasure food recognized also for its nutritional qualities.",
      "preservation": "The same day",
      "nutritional": "14 kcal for 100g",
      "vitamin": "Rich in vitamin B9",
      "history": "Probably originating from Asia Minor, the radish was already on the menu of the Babylonians and Egyptians 4,000 years ago. Among the Greeks, the radish was dedicated to Apollo. The god sometimes received golden radishes as offerings.",
      "imagePath": "../../../assets/vegetables/icons/radish.png",
      "cultureSheets": {
        "monthOfPlanting": [4, 5],
        "monthOfHarvest": [5, 6],
        "plantingInterval": null,
        "plantation": "Sow fairly lightly in April-May. Bury the seeds at 2 or 3 cm, soil if it is hot. Pack the soil lightly and water with the watering can with its apple. As soon as the plants have 3 or 4 leaves, thin them out leaving 5 cm between each plant.",
        "harvest": "3 to 4 weeks after sowing depending on the variety",
        "soil": "Rich deep and sandy",
        "tasks": "Hoe and water regularly. Weed by hand.",
        "favourableAssociation": ["Carrot", "Tomato"],
        "unfavourableAssociation": ["Cucumber"],
        "favourablePrecedents": null,
        "unfavourablePrecedents": ["Cabbage", "Turnip"]
      }
    },
    {
      "id": "spin",
      "name": "Spinach",
      "type": "vegetable",
      "family": "Chenopodiaceae",
      "synopsis": "Known for its nutritional qualities and energy benefits, it is used in the composition of tasty dishes. A food for well-being, it is worth discovering or rediscovering for its flavor!",
      "preservation": "No more than 2 days in the refrigerator",
      "nutritional": "28 kcal for 100g",
      "vitamin": "Rich in fiber and vitamin K1",
      "history": "Very present in the Arab cultures, spinach was used in poultices in the treatment of liver and stomach pains. It seems that Greeks and Romans did not know these green leaves in Antiquity.",
      "imagePath": "../../../assets/vegetables/icons/spinach.png",
      "cultureSheets": {
        "monthOfPlanting": [3, 5],
        "monthOfHarvest": [4, 6],
        "plantingInterval": 4,
        "plantation": "Spinach is greedy for compost and requires regular watering. By playing on the variety (hundreds are adapted to spring, others to fall), it can be consumed all year round, except in climates with hot and dry summers. ",
        "harvest": "35 to 45 days after sowing",
        "soil": "Neutral or calcareous, rich and well drained",
        "tasks": "Plant spinach in part shade, in well-packed soil. Hoe, weed and water without excess.",
        "favourableAssociation": ["Cabbage", "Radish", "Tomato", "Bean"],
        "unfavourableAssociation": ["Beetroot"],
        "favourablePrecedents": ["Bean", "Carrot"],
        "unfavourablePrecedents": null
      }
    },
    {
      "id": "toma",
      "name": "Tomato",
      "type": "fruit",
      "fromTree": false,
      "family": "Solanaceae",
      "synopsis": "Very simple to consume, it lends itself to an infinite number of preparations. Very rich in nutrition, it has real advantages for your well-being. All its qualities make it the most consumed vegetable in France.",
      "preservation": "3 to 4 days at room temperature",
      "nutritional": "20 kcal for 100g",
      "vitamin": "Rich in fiber and vitamin C",
      "history": "Discovered in South America in the 16th century, the tomato takes its name from an Aztec word: \"Tomatl\". After crossing the ocean, it reached the south of Europe. The Italians called it \"golden apple\" and the Provençals \"love apple\". Considered poisonous, its plants were cultivated for their ornamental qualities. The agronomist Olivier de Serres recommended it for the decoration of arbors. Its properties as a vegetable fruit were only discovered in the middle of the 18th century. It then gained all the tables of southern Europe. In France, the Provençals were the first to consume it. It was prepared in the form of sauces more or less raised.",
      "imagePath": "../../../assets/vegetables/icons/tomato.png",
      "cultureSheets": {
        "monthOfPlanting": 5,
        "monthOfHarvest": 7,
        "plantingInterval": 3,
        "plantation": "In the second part of May, as soon as there is no risk of frost. Choose well-built plants.",
        "harvest": "From July to September depending on the variety. To pick ripe tomatoes, grasp each one with your hands and pull it out, turning it like a pear. Cut off the stems of underripe tomatoes that you want to keep for a while. Before winter, wrap the last harvested fruits in newspaper, they will finish ripening.",
        "soil": "Lightly loose and rich in humus.",
        "tasks": "Keep a single stem and pinch off the shoots (false buds) that appear in the leaf axils. Tie the stem to a stake as the plant grows by securing it with raffia. Water regularly, preferably in the morning, avoiding wetting the foliage to avoid the development of mildew. Plant a row of marigolds nearby. Their yellow color and smell are repulsive. Keep the soil mulched and loose. Weed regularly. Be careful not to remove leaves in the belief that this will hasten fruit ripening, but at the end of the season you can remove yellowed or diseased leaves to allow the last of the fruit to ripen. To prevent fungal diseases, spray with Bordeaux mixture at planting,after the first pruning, and if the weather is too wet, a third time, avoiding the already formed fruits. As soon as the plants have recovered, you can also bring 1.5 liter of liquid manure for a 10 liter watering can and water the tomato plants twice at 15 days interval. Caution: Nettle manure is rich in nitrogen, do not overuse it at the risk of seeing the leaves develop to the detriment of the fruits.",
        "favourableAssociation": ["Celery", "Bean", "Onion", "Parsley", "Leek", "Basil", "Chives", "Nasturtium", "Lavender"],
        "unfavourableAssociation": null,
        "favourablePrecedents": null,
        "unfavourablePrecedents": null
      }
    }
    ]